<svg width="25" height="25" viewBox="0 0 25 25" fill="none" xmlns="http://www.w3.org/2000/svg">
<path d="M21.4844 9.12227C21.4844 9.12227 20.809 8.54844 19.832 8.2293C19.5613 7.31758 18.8883 6.67227 18.1008 6.67227C17.7629 6.67227 17.4461 6.79141 17.1723 7C17.4859 7.23867 17.7402 7.59414 17.9039 8.02109H13.6863V4.10547C14.1465 4.25742 14.5297 4.49375 14.7863 4.78438C15.0113 4.53086 15.1395 4.23633 15.1395 3.92187C15.1395 3.19141 14.4438 2.5668 13.4617 2.31562C13.118 1.4082 12.4996 0.78125 12.4996 0.78125C12.4996 0.78125 11.8816 1.4082 11.5375 2.31562C10.5555 2.56719 9.86016 3.19141 9.86016 3.92187C9.86016 4.23633 9.98828 4.53086 10.2133 4.78438C10.4699 4.49375 10.8535 4.25703 11.3133 4.10547V8.0207H7.09609C7.25938 7.59336 7.51445 7.23828 7.82695 6.99961C7.5543 6.79102 7.23711 6.67187 6.89844 6.67187C6.11094 6.67187 5.43906 7.31719 5.16758 8.22891C4.19102 8.54844 3.51562 9.12227 3.51562 9.12227C3.51562 9.12227 4.19102 9.69648 5.16758 10.0156C5.43867 10.9273 6.11094 11.573 6.89844 11.573C7.23711 11.573 7.5543 11.4535 7.82695 11.2449C7.51445 11.0063 7.25938 10.6508 7.09609 10.2234H11.3137V20.8945C10.8535 20.743 10.4703 20.5063 10.2137 20.2164C9.98867 20.4695 9.86055 20.7641 9.86055 21.0781C9.86055 21.8086 10.5559 22.4336 11.5379 22.6844C11.8816 23.5922 12.4996 24.2188 12.4996 24.2188C12.4996 24.2188 13.118 23.5922 13.4621 22.6844C14.4441 22.4332 15.1398 21.8086 15.1398 21.0781C15.1398 20.7641 15.0117 20.4695 14.7867 20.2164C14.5301 20.5063 14.1465 20.7434 13.6867 20.8945V10.2234H17.9043C17.7406 10.6508 17.4863 11.0063 17.1727 11.2449C17.4465 11.4535 17.7633 11.573 18.1012 11.573C18.8887 11.573 19.5613 10.9273 19.8324 10.0156C20.809 9.69609 21.4844 9.12227 21.4844 9.12227Z" fill="black"/>
</svg>
